<?xml version="1.0" encoding="UTF-8" standalone="no"?>
<!DOCTYPE svg PUBLIC "-//W3C//DTD SVG 1.1//EN"
 "http://www.w3.org/Graphics/SVG/1.1/DTD/svg11.dtd">
<!-- Generated by graphviz version 2.38.0 (20140413.2041)
 -->
<!-- Title: models_diagram Pages: 1 -->
<svg width="988pt" height="363pt"
 viewBox="0.00 0.00 988.34 363.00" xmlns="http://www.w3.org/2000/svg" xmlns:xlink="http://www.w3.org/1999/xlink">
<g id="graph0" class="graph" transform="scale(1 1) rotate(0) translate(4 359)">
<title>models_diagram</title>
<polygon fill="none" stroke="none" points="-4,4 -4,-359 984.343,-359 984.343,4 -4,4"/>
<!-- _diagram_info -->
<g id="node1" class="node"><title>_diagram_info</title>
<text text-anchor="start" x="8" y="-288.6" font-family="Times,serif" font-size="13.00">Models diagram</text>
<text text-anchor="start" x="8" y="-274.6" font-family="Times,serif" font-size="13.00">Date: Dec 06 2018 &#45; 12:57</text>
<text text-anchor="start" x="8" y="-260.6" font-family="Times,serif" font-size="13.00">Migration version: 20181204130720</text>
<text text-anchor="start" x="8" y="-246.6" font-family="Times,serif" font-size="13.00">Generated by RailRoady 1.5.3</text>
<text text-anchor="start" x="8" y="-232.6" font-family="Times,serif" font-size="13.00">http://railroady.prestonlee.com</text>
</g>
<!-- Category -->
<g id="node2" class="node"><title>Category</title>
<path fill="none" stroke="black" d="M244,-211C244,-211 464,-211 464,-211 470,-211 476,-217 476,-223 476,-223 476,-305 476,-305 476,-311 470,-317 464,-317 464,-317 244,-317 244,-317 238,-317 232,-311 232,-305 232,-305 232,-223 232,-223 232,-217 238,-211 244,-211"/>
<text text-anchor="middle" x="354" y="-301.8" font-family="Times,serif" font-size="14.00">Category</text>
<polyline fill="none" stroke="black" points="232,-294 476,-294 "/>
<text text-anchor="start" x="240" y="-278.8" font-family="Times,serif" font-size="14.00">id :bigint</text>
<text text-anchor="start" x="240" y="-263.8" font-family="Times,serif" font-size="14.00">name :character varying</text>
<text text-anchor="start" x="240" y="-248.8" font-family="Times,serif" font-size="14.00">branch :character varying</text>
<text text-anchor="start" x="240" y="-233.8" font-family="Times,serif" font-size="14.00">created_at :timestamp without time zone</text>
<text text-anchor="start" x="240" y="-218.8" font-family="Times,serif" font-size="14.00">updated_at :timestamp without time zone</text>
</g>
<!-- Post -->
<g id="node4" class="node"><title>Post</title>
<path fill="none" stroke="black" d="M392,-0.5C392,-0.5 612,-0.5 612,-0.5 618,-0.5 624,-6.5 624,-12.5 624,-12.5 624,-124.5 624,-124.5 624,-130.5 618,-136.5 612,-136.5 612,-136.5 392,-136.5 392,-136.5 386,-136.5 380,-130.5 380,-124.5 380,-124.5 380,-12.5 380,-12.5 380,-6.5 386,-0.5 392,-0.5"/>
<text text-anchor="middle" x="502" y="-121.3" font-family="Times,serif" font-size="14.00">Post</text>
<polyline fill="none" stroke="black" points="380,-113.5 624,-113.5 "/>
<text text-anchor="start" x="388" y="-98.3" font-family="Times,serif" font-size="14.00">id :bigint</text>
<text text-anchor="start" x="388" y="-83.3" font-family="Times,serif" font-size="14.00">title :character varying</text>
<text text-anchor="start" x="388" y="-68.3" font-family="Times,serif" font-size="14.00">content :text</text>
<text text-anchor="start" x="388" y="-53.3" font-family="Times,serif" font-size="14.00">category_id :bigint</text>
<text text-anchor="start" x="388" y="-38.3" font-family="Times,serif" font-size="14.00">user_id :bigint</text>
<text text-anchor="start" x="388" y="-23.3" font-family="Times,serif" font-size="14.00">created_at :timestamp without time zone</text>
<text text-anchor="start" x="388" y="-8.3" font-family="Times,serif" font-size="14.00">updated_at :timestamp without time zone</text>
</g>
<!-- Category&#45;&gt;Post -->
<g id="edge1" class="edge"><title>Category&#45;&gt;Post</title>
<path fill="none" stroke="#d81eca" d="M398.849,-204.362C413.209,-185.588 429.311,-164.536 444.447,-144.747"/>
<ellipse fill="none" stroke="#d81eca" cx="396.286" cy="-207.714" rx="4.00002" ry="4.00002"/>
<polygon fill="#d81eca" stroke="#d81eca" points="444.565,-144.592 454.215,-139.383 447.603,-140.62 450.641,-136.649 450.641,-136.649 450.641,-136.649 447.603,-140.62 447.066,-133.915 444.565,-144.592 444.565,-144.592"/>
</g>
<!-- User -->
<g id="node3" class="node"><title>User</title>
<path fill="none" stroke="black" d="M506.5,-173.5C506.5,-173.5 795.5,-173.5 795.5,-173.5 801.5,-173.5 807.5,-179.5 807.5,-185.5 807.5,-185.5 807.5,-342.5 807.5,-342.5 807.5,-348.5 801.5,-354.5 795.5,-354.5 795.5,-354.5 506.5,-354.5 506.5,-354.5 500.5,-354.5 494.5,-348.5 494.5,-342.5 494.5,-342.5 494.5,-185.5 494.5,-185.5 494.5,-179.5 500.5,-173.5 506.5,-173.5"/>
<text text-anchor="middle" x="651" y="-339.3" font-family="Times,serif" font-size="14.00">User</text>
<polyline fill="none" stroke="black" points="494.5,-331.5 807.5,-331.5 "/>
<text text-anchor="start" x="502.5" y="-316.3" font-family="Times,serif" font-size="14.00">id :bigint</text>
<text text-anchor="start" x="502.5" y="-301.3" font-family="Times,serif" font-size="14.00">name :character varying</text>
<text text-anchor="start" x="502.5" y="-286.3" font-family="Times,serif" font-size="14.00">nickname :character varying</text>
<text text-anchor="start" x="502.5" y="-271.3" font-family="Times,serif" font-size="14.00">email :character varying</text>
<text text-anchor="start" x="502.5" y="-256.3" font-family="Times,serif" font-size="14.00">encrypted_password :character varying</text>
<text text-anchor="start" x="502.5" y="-241.3" font-family="Times,serif" font-size="14.00">reset_password_token :character varying</text>
<text text-anchor="start" x="502.5" y="-226.3" font-family="Times,serif" font-size="14.00">reset_password_sent_at :timestamp without time zone</text>
<text text-anchor="start" x="502.5" y="-211.3" font-family="Times,serif" font-size="14.00">remember_created_at :timestamp without time zone</text>
<text text-anchor="start" x="502.5" y="-196.3" font-family="Times,serif" font-size="14.00">created_at :timestamp without time zone</text>
<text text-anchor="start" x="502.5" y="-181.3" font-family="Times,serif" font-size="14.00">updated_at :timestamp without time zone</text>
</g>
<!-- User&#45;&gt;Post -->
<g id="edge2" class="edge"><title>User&#45;&gt;Post</title>
<path fill="none" stroke="#874924" d="M577.038,-166.949C571.361,-159.576 565.68,-152.198 560.126,-144.986"/>
<ellipse fill="none" stroke="#874924" cx="579.512" cy="-170.161" rx="4.00002" ry="4.00002"/>
<polygon fill="#874924" stroke="#874924" points="559.774,-144.529 557.239,-133.86 556.724,-140.567 553.673,-136.606 553.673,-136.606 553.673,-136.606 556.724,-140.567 550.108,-139.351 559.774,-144.529 559.774,-144.529"/>
</g>
<!-- ApplicationRecord -->
<g id="node5" class="node"><title>ApplicationRecord</title>
<ellipse fill="none" stroke="black" cx="903" cy="-264" rx="77.1866" ry="18"/>
<text text-anchor="middle" x="903" y="-260.3" font-family="Times,serif" font-size="14.00">ApplicationRecord</text>
</g>
</g>
</svg>
